"chemin","class","methode","methode_LOC","methode_CLOC","methode_DC","CC","methode_BC"
"/Users/mac/Documents/ift3913/TP1/FichierJarTp1/../../TP1/SP-idea/src/TestUnitaire/MainTest.java","MainTest","init","3","0","0.0000000000","1","0.0000000000"
"/Users/mac/Documents/ift3913/TP1/FichierJarTp1/../../TP1/SP-idea/src/TestUnitaire/MainTest.java","MainTest","getClassByName_String","9","0","0.0000000000","5","0.0000000000"
"/Users/mac/Documents/ift3913/TP1/FichierJarTp1/../../TP1/SP-idea/src/TestUnitaire/MainTest.java","MainTest","TestClassAbstractRenderer","20","0","0.0000000000","3","0.0000000000"
"/Users/mac/Documents/ift3913/TP1/FichierJarTp1/../../TP1/SP-idea/src/TestUnitaire/MainTest.java","MainTest","testClassXYPlot","20","0","0.0000000000","3","0.0000000000"
"/Users/mac/Documents/ift3913/TP1/FichierJarTp1/../../TP1/SP-idea/src/code/Class.java","Class","Class_String_int_int_HashMap<>","9","3","0.3333333333","1","0.3333333333"
"/Users/mac/Documents/ift3913/TP1/FichierJarTp1/../../TP1/SP-idea/src/code/Class.java","Class","getLoc","13","10","0.7692307692","1","0.7692307692"
"/Users/mac/Documents/ift3913/TP1/FichierJarTp1/../../TP1/SP-idea/src/code/Class.java","Class","getName","9","6","0.6666666667","1","0.6666666667"
"/Users/mac/Documents/ift3913/TP1/FichierJarTp1/../../TP1/SP-idea/src/code/Class.java","Class","addLOC_int","15","12","0.8000000000","1","0.8000000000"
"/Users/mac/Documents/ift3913/TP1/FichierJarTp1/../../TP1/SP-idea/src/code/Class.java","Class","addCLOC_int","19","16","0.8421052632","1","0.8421052632"
"/Users/mac/Documents/ift3913/TP1/FichierJarTp1/../../TP1/SP-idea/src/code/Class.java","Class","toString","19","16","0.8421052632","1","0.8421052632"
"/Users/mac/Documents/ift3913/TP1/FichierJarTp1/../../TP1/SP-idea/src/code/Class.java","Class","getBc","12","8","0.6666666667","1","0.6666666667"
"/Users/mac/Documents/ift3913/TP1/FichierJarTp1/../../TP1/SP-idea/src/code/Class.java","Class","getCloc","17","14","0.8235294118","1","0.8235294118"
"/Users/mac/Documents/ift3913/TP1/FichierJarTp1/../../TP1/SP-idea/src/code/Class.java","Class","getDc","21","18","0.8571428571","1","0.8571428571"
"/Users/mac/Documents/ift3913/TP1/FichierJarTp1/../../TP1/SP-idea/src/code/Class.java","Class","getWmc","10","4","0.4000000000","3","0.1333333333"
"/Users/mac/Documents/ift3913/TP1/FichierJarTp1/../../TP1/SP-idea/src/TestUnitaire/Point.java","Point","getX","2","1","0.5000000000","1","0.5000000000"
"/Users/mac/Documents/ift3913/TP1/FichierJarTp1/../../TP1/SP-idea/src/TestUnitaire/Point.java","Point","getY","2","1","0.5000000000","1","0.5000000000"
"/Users/mac/Documents/ift3913/TP1/FichierJarTp1/../../TP1/SP-idea/src/TestUnitaire/Point.java","Point","setX_int","2","1","0.5000000000","1","0.5000000000"
"/Users/mac/Documents/ift3913/TP1/FichierJarTp1/../../TP1/SP-idea/src/TestUnitaire/Point.java","Point","setY_int","2","1","0.5000000000","1","0.5000000000"
"/Users/mac/Documents/ift3913/TP1/FichierJarTp1/../../TP1/SP-idea/src/TestUnitaire/Point.java","Point","Point_int_y","5","1","0.2000000000","1","0.2000000000"
"/Users/mac/Documents/ift3913/TP1/FichierJarTp1/../../TP1/SP-idea/src/code/MetricParser.java","MetricParser","regexFinder_Scanner","79","20","0.2531645570","20","0.0126582278"
"/Users/mac/Documents/ift3913/TP1/FichierJarTp1/../../TP1/SP-idea/src/code/MetricParser.java","MetricParser","classParser_Scanner_String_MetricType","35","11","0.3142857143","4","0.0785714286"
"/Users/mac/Documents/ift3913/TP1/FichierJarTp1/../../TP1/SP-idea/src/code/MetricParser.java","MetricParser","openFile_String","11","1","0.0909090909","1","0.0909090909"
"/Users/mac/Documents/ift3913/TP1/FichierJarTp1/../../TP1/SP-idea/src/code/MetricParser.java","MetricParser","methodParser_Scanner_String_MetricType","34","11","0.3235294118","4","0.0808823529"
"/Users/mac/Documents/ift3913/TP1/FichierJarTp1/../../TP1/SP-idea/src/code/MetricParser.java","MetricParser","mainFileParser_Scanner","24","6","0.2500000000","4","0.0625000000"
"/Users/mac/Documents/ift3913/TP1/FichierJarTp1/../../TP1/SP-idea/src/code/MetricParser.java","MetricParser","addMetricBtoA_MetricType_MetricType","12","6","0.5000000000","1","0.5000000000"
"/Users/mac/Documents/ift3913/TP1/FichierJarTp1/../../TP1/SP-idea/src/code/MetricParser.java","MetricParser","parsingClassName_String","16","7","0.4375000000","1","0.4375000000"
"/Users/mac/Documents/ift3913/TP1/FichierJarTp1/../../TP1/SP-idea/src/code/MetricParser.java","MetricParser","parsingMethodName_String","35","9","0.2571428571","4","0.0642857143"
"/Users/mac/Documents/ift3913/TP1/FichierJarTp1/../../TP1/SP-idea/src/code/Main.java","Main","main_String[]","11","4","0.3636363636","1","0.3636363636"
"/Users/mac/Documents/ift3913/TP1/FichierJarTp1/../../TP1/SP-idea/src/code/CSV.java","CSV","createCSV_HashMap<>>","42","8","0.1904761905","5","0.0380952381"
"/Users/mac/Documents/ift3913/TP1/FichierJarTp1/../../TP1/SP-idea/src/code/CSV.java","CSV","createClassCSV_ArrayList<>","15","4","0.2666666667","2","0.1333333333"
"/Users/mac/Documents/ift3913/TP1/FichierJarTp1/../../TP1/SP-idea/src/code/CSV.java","CSV","createMethodCSV_ArrayList<>","15","4","0.2666666667","2","0.1333333333"
"/Users/mac/Documents/ift3913/TP1/FichierJarTp1/../../TP1/SP-idea/src/code/Method.java","Method","Method_String_int_int_int","9","3","0.3333333333","1","0.3333333333"
"/Users/mac/Documents/ift3913/TP1/FichierJarTp1/../../TP1/SP-idea/src/code/Method.java","Method","getLoc","14","11","0.7857142857","1","0.7857142857"
"/Users/mac/Documents/ift3913/TP1/FichierJarTp1/../../TP1/SP-idea/src/code/Method.java","Method","getName","10","7","0.7000000000","1","0.7000000000"
"/Users/mac/Documents/ift3913/TP1/FichierJarTp1/../../TP1/SP-idea/src/code/Method.java","Method","addLOC_int","34","31","0.9117647059","1","0.9117647059"
"/Users/mac/Documents/ift3913/TP1/FichierJarTp1/../../TP1/SP-idea/src/code/Method.java","Method","addCLOC_int","38","35","0.9210526316","1","0.9210526316"
"/Users/mac/Documents/ift3913/TP1/FichierJarTp1/../../TP1/SP-idea/src/code/Method.java","Method","getBc","31","27","0.8709677419","1","0.8709677419"
"/Users/mac/Documents/ift3913/TP1/FichierJarTp1/../../TP1/SP-idea/src/code/Method.java","Method","getCloc","18","15","0.8333333333","1","0.8333333333"
"/Users/mac/Documents/ift3913/TP1/FichierJarTp1/../../TP1/SP-idea/src/code/Method.java","Method","getCc","26","23","0.8846153846","1","0.8846153846"
"/Users/mac/Documents/ift3913/TP1/FichierJarTp1/../../TP1/SP-idea/src/code/Method.java","Method","getDc","22","19","0.8636363636","1","0.8636363636"
"/Users/mac/Documents/ift3913/TP1/FichierJarTp1/../../TP1/SP-idea/src/code/JavaMetricCalculator.java","JavaMetricCalculator","analyzePaths_Map<>","18","6","0.3333333333","4","0.0833333333"
"/Users/mac/Documents/ift3913/TP1/FichierJarTp1/../../TP1/SP-idea/src/code/JavaMetricCalculator.java","JavaMetricCalculator","start","19","7","0.3684210526","2","0.1842105263"
"/Users/mac/Documents/ift3913/TP1/FichierJarTp1/../../TP1/SP-idea/src/code/Directory.java","Directory","askUserDirectoryLocation_(","23","4","0.1739130435","4","0.0434782609"
